Bonus lecture
…
# Generate example data
data <- simulate_cognitive_experiment(
  n_participants = 20,
  n_trials = 100,
  true_effect = 0.5,
  participant_sd = 0.25,
  trial_sd = 1.0
)

# View first few rows
data

# A tibble: 4,000 × 4
   participant condition trial response
         <int> <chr>     <int>    <dbl>
 1           1 A             1   -0.708
 2           1 B             1    0.642
 3           1 A             2   -0.666
 4           1 B             2    0.131
 5           1 A             3   -0.265
 6           1 B             3   -0.827
 7           1 A             4    1.20 
 8           1 B             4    1.01 
 9           1 A             5   -0.778
10           1 B             5    2.11 
# ℹ 3,990 more rows
…
# Participant-level summary
data %>%
  group_by(participant, condition) %>%
  summarise(
    mean_rt = mean(response),
    sd_rt = sd(response),
    n_trials = n(),
    .groups = "drop"
  ) 

# A tibble: 40 × 5
   participant condition mean_rt sd_rt n_trials
         <int> <chr>       <dbl> <dbl>    <int>
 1           1 A           0.345 0.935      100
 2           1 B           0.842 0.967      100
 3           2 A           0.562 0.929      100
 4           2 B           0.853 1.03       100
 5           3 A           1.07  1.04       100
 6           3 B           1.27  0.914      100
 7           4 A           0.558 1.01       100
 8           4 B           0.991 1.03       100
 9           5 A           0.561 1.02       100
10           5 B           1.12  1.14       100
# ℹ 30 more rows
…
Sentiment Analysis

# Add sentiment scores
sentiment_df <- words_df %>% 
  inner_join(get_sentiments("bing")) %>% 
  count(CaregiverID, StartDate, sentiment) %>%
  pivot_wider(names_from = sentiment, 
              values_from = n, 
              values_fill = 0) %>%
  mutate(sentiment_score = positive - negative)

sentiment_df

# A tibble: 4,070 × 5
   CaregiverID StartDate           positive negative sentiment_score
   <chr>       <dttm>                 <int>    <int>           <int>
 1 R3ID00032   2021-06-09 10:59:01        2        0               2
 2 R3ID00032   2021-11-10 09:57:51        1        1               0
 3 R3ID00049   2021-12-10 08:17:19        1        0               1
 4 R3ID00083   2021-11-14 09:11:26        0        1              -1
 5 R3ID00084   2021-06-11 10:58:56        1        0               1
 6 R3ID00084   2021-10-13 09:21:12        1        0               1
 7 R3ID00117   2021-12-08 10:30:31        0        1              -1
 8 R3ID00166   2021-03-17 22:15:04        1        0               1
 9 R3ID00168   2021-12-08 10:13:24        1        0               1
10 R3ID00188   2021-10-14 09:17:07        1        0               1
# ℹ 4,060 more rows
…
